<?xml version="1.0" encoding="utf-8"?>
<!-- Generator: Adobe Illustrator 16.0.4, SVG Export Plug-In . SVG Version: 6.00 Build 0)  -->
<!DOCTYPE svg PUBLIC "-//W3C//DTD SVG 1.1//EN" "http://www.w3.org/Graphics/SVG/1.1/DTD/svg11.dtd">
<svg version="1.1" xmlns="http://www.w3.org/2000/svg" xmlns:xlink="http://www.w3.org/1999/xlink" x="0px" y="0px" width="1200px"
	 height="300px" viewBox="0 0 1200 300" enable-background="new 0 0 1200 300" xml:space="preserve">
<g id="Laag_1">
	<rect x="1" y="1" fill="#BFB19F" stroke="#000000" stroke-width="2" stroke-miterlimit="10" width="1198" height="298"/>
	<text transform="matrix(1 0 0 1 475.772 61.1426)" font-family="'Roboto Condensed'" text-align="center" font-weight="300" font-size="48">Audio Context</text>
	<rect x="50" y="100" fill="#FFFFFF" stroke="#000000" stroke-width="2" stroke-miterlimit="10" width="300" height="150"/>
	<rect x="450" y="100" fill="#FFFFFF" stroke="#000000" stroke-width="2" stroke-miterlimit="10" width="300" height="150"/>
	<rect x="850" y="100" fill="#FFFFFF" stroke="#000000" stroke-width="2" stroke-miterlimit="10" width="300" height="150"/>
	<text transform="matrix(1 0 0 1 131.1445 188)" font-family="'Roboto Condensed'" font-weight="300" font-size="48">Source</text>
	<text transform="matrix(1 0 0 1 532.9771 188)" font-family="'Roboto Condensed'" font-weight="300" font-size="48">Effects</text>
	<text transform="matrix(1 0 0 1 903.9863 188)" font-family="'Roboto Condensed'" font-weight="300" font-size="48">Destination</text>
</g>
<g id="Pijl">
	<line fill="none" stroke="#000000" stroke-width="4" stroke-miterlimit="10" x1="350" y1="175" x2="450" y2="175"/>
	<line fill="none" stroke="#000000" stroke-width="4" stroke-miterlimit="10" x1="423" y1="149.5" x2="449" y2="175.5"/>
	<line fill="none" stroke="#000000" stroke-width="4" stroke-miterlimit="10" x1="423" y1="200.5" x2="449" y2="174.5"/>
	<line fill="none" stroke="#000000" stroke-width="4" stroke-miterlimit="10" x1="750" y1="175" x2="850" y2="175"/>
	<line fill="none" stroke="#000000" stroke-width="4" stroke-miterlimit="10" x1="823" y1="149.5" x2="849" y2="175.5"/>
	<line fill="none" stroke="#000000" stroke-width="4" stroke-miterlimit="10" x1="823" y1="200.5" x2="849" y2="174.5"/>
</g>
</svg>
